<svg width="51" height="51" viewBox="0 0 51 51" fill="none" xmlns="http://www.w3.org/2000/svg">
<g filter="url(#filter0_d_693_950)">
<path fill-rule="evenodd" clip-rule="evenodd" d="M29.3332 34.1252C29.0878 34.1252 28.8425 34.0313 28.6556 33.8444L20.989 26.1778C20.6143 25.8031 20.6143 25.1974 20.989 24.8227L28.6556 17.156C29.0303 16.7813 29.636 16.7813 30.0107 17.156C30.3854 17.5307 30.3854 18.1364 30.0107 18.5111L23.0216 25.5002L30.0107 32.4894C30.3854 32.8641 30.3854 33.4697 30.0107 33.8444C29.8238 34.0313 29.5785 34.1252 29.3332 34.1252Z" fill="white"/>
<path d="M29.3332 34.1252C29.0878 34.1252 28.8425 34.0313 28.6556 33.8444L20.989 26.1778C20.6143 25.8031 20.6143 25.1974 20.989 24.8227L28.6556 17.156C29.0303 16.7813 29.636 16.7813 30.0107 17.156C30.3854 17.5307 30.3854 18.1364 30.0107 18.5111L23.0216 25.5002L30.0107 32.4894C30.3854 32.8641 30.3854 33.4697 30.0107 33.8444C29.8238 34.0313 29.5785 34.1252 29.3332 34.1252" stroke="white" stroke-width="1.27778"/>
</g>
<defs>
<filter id="filter0_d_693_950" x="16.0691" y="16.2361" width="18.8616" height="26.5281" filterUnits="userSpaceOnUse" color-interpolation-filters="sRGB">
<feFlood flood-opacity="0" result="BackgroundImageFix"/>
<feColorMatrix in="SourceAlpha" type="matrix" values="0 0 0 0 0 0 0 0 0 0 0 0 0 0 0 0 0 0 127 0" result="hardAlpha"/>
<feOffset dy="4"/>
<feGaussianBlur stdDeviation="2"/>
<feComposite in2="hardAlpha" operator="out"/>
<feColorMatrix type="matrix" values="0 0 0 0 1 0 0 0 0 1 0 0 0 0 1 0 0 0 0.25 0"/>
<feBlend mode="normal" in2="BackgroundImageFix" result="effect1_dropShadow_693_950"/>
<feBlend mode="normal" in="SourceGraphic" in2="effect1_dropShadow_693_950" result="shape"/>
</filter>
</defs>
</svg>
